{
  "globalDependencies": {
    "body-parser": "registry:dt/body-parser#0.0.0+20160619023215",
    "es6-shim": "registry:dt/es6-shim#0.31.2+20160602141504",
    "node": "registry:dt/node#6.0.0+20160807145350"
  },
  "dependencies": {
    "d3": "registry:npm/d3#3.0.0+20160627165201",
    "express": "registry:npm/express#4.14.0+20160810205701"
  }
}
